…
``` r
tbl_df(df)  %>% arrange(Mes)
```

    ## # A tibble: 180 x 18
    ##      Ord   Mes   Ano Total  Worm Worm_P   DOS DOS_P Invasao Invasao_P
    ##    <int> <chr> <int> <int> <int>  <dbl> <dbl> <dbl>   <int>     <dbl>
    ##  1     4   abr  2016 44352  1170   0.03  6147  0.14     126      0.00
    ##  2    16   abr  2015 52991  3046   0.06    34  0.00     150      0.00
    ##  3    28   abr  2014 41533  3513   0.08  1505  0.04    1559      0.04
    ##  4    40   abr  2013 29943  2084   0.07    14  0.00    1511      0.05
    ##  5    52   abr  2012 35342  3171   0.09     9  0.00     100      0.00
    ##  6    64   abr  2011 44908  1157   0.03    10  0.00      12      0.00
    ##  7    76   abr  2010 11462  2127   0.19     0  0.00       3      0.00
    ##  8    88   abr  2009 25496   468   0.02   682  0.03      20      0.00
    ##  9   100   abr  2008 14333  1883   0.13     3  0.00       5      0.00
    ## 10   112   abr  2007 14152  6416   0.45    11  0.00       6      0.00
    ## # ... with 170 more rows, and 8 more variables: Web <int>, Web_P <dbl>,
    ## #   Scan <int>, Scan_P <dbl>, Fraude <int>, Fraude_P <dbl>, Outros <dbl>,
    ## #   Outros_P <dbl>

``` r
tbl_df(df)  %>% select(Mes, Ano, Total)  %>% arrange(Mes)
```

    ## # A tibble: 180 x 3
    ##      Mes   Ano Total
    ##    <chr> <int> <int>
    ##  1   abr  2016 44352
    ##  2   abr  2015 52991
    ##  3   abr  2014 41533
    ##  4   abr  2013 29943
    ##  5   abr  2012 35342
    ##  6   abr  2011 44908
    ##  7   abr  2010 11462
    ##  8   abr  2009 25496
    ##  9   abr  2008 14333
    ## 10   abr  2007 14152
    ## # ... with 170 more rows

``` r
tbl_df(df)  %>% select(Mes, Ano, Total)  %>% arrange(Mes) %>% filter(Total > median(Total, na.rm = TRUE))
```

    ## # A tibble: 90 x 3
    ##      Mes   Ano  Total
    ##    <chr> <int>  <int>
    ##  1   abr  2016  44352
    ##  2   abr  2015  52991
    ##  3   abr  2014  41533
    ##  4   abr  2013  29943
    ##  5   abr  2012  35342
    ##  6   abr  2011  44908
    ##  7   abr  2009  25496
    ##  8   ago  2016  49596
    ##  9   ago  2015  65486
    ## 10   ago  2014 134156
    ## # ... with 80 more rows

``` r
tbl_df(df)  %>% select(Mes, Ano, Total)  %>% arrange(Mes) %>% filter(Ano >= 2011)
```

    ## # A tibble: 72 x 3
    ##      Mes   Ano  Total
    ##    <chr> <int>  <int>
    ##  1   abr  2016  44352
    ##  2   abr  2015  52991
    ##  3   abr  2014  41533
    ##  4   abr  2013  29943
    ##  5   abr  2012  35342
    ##  6   abr  2011  44908
    ##  7   ago  2016  49596
    ##  8   ago  2015  65486
    ##  9   ago  2014 134156
    ## 10   ago  2013  28531
    ## # ... with 62 more rows

``` r
tbl_df(df)  %>% select(Mes, Ano, Total)  %>% arrange(Mes, desc(Mes)) %>% filter(Ano >= 2011)
```

    ## # A tibble: 72 x 3
    ##      Mes   Ano  Total
    ##    <chr> <int>  <int>
    ##  1   abr  2016  44352
    ##  2   abr  2015  52991
    ##  3   abr  2014  41533
    ##  4   abr  2013  29943
    ##  5   abr  2012  35342
    ##  6   abr  2011  44908
    ##  7   ago  2016  49596
    ##  8   ago  2015  65486
    ##  9   ago  2014 134156
    ## 10   ago  2013  28531
    ## # ... with 62 more rows
…
    ## Classes 'tbl_df', 'tbl' and 'data.frame':    180 obs. of  4 variables:
    ##  $ Data   : chr  "1/2002" "2/2002" "3/2002" "4/2002" ...
    ##  $ DOS    : int  4 2 0 1 1 3 14 6 5 7 ...
    ##  $ Invasao: int  10 14 10 10 6 12 25 7 16 10 ...
    ##  $ Web    : int  33 15 11 26 15 8 20 27 20 23 ...

``` r
as.tbl(dfinv)
```

    ## # A tibble: 180 x 4
    ##       Data   DOS Invasao   Web
    ##  *   <chr> <int>   <int> <int>
    ##  1  1/2002     4      10    33
    ##  2  2/2002     2      14    15
    ##  3  3/2002     0      10    11
    ##  4  4/2002     1      10    26
    ##  5  5/2002     1       6    15
    ##  6  6/2002     3      12     8
    ##  7  7/2002    14      25    20
    ##  8  8/2002     6       7    27
    ##  9  9/2002     5      16    20
    ## 10 10/2002     7      10    23
    ## # ... with 170 more rows
…
``` r
df1
```

    ## # A tibble: 180 x 2
    ##       Data Total
    ##  *   <chr> <int>
    ##  1  1/2002  1453
    ##  2  2/2002  1186
    ##  3  3/2002  1254
    ##  4  4/2002  1181
    ##  5  5/2002  1267
    ##  6  6/2002  1407
    ##  7  7/2002  1900
    ##  8  8/2002  1716
    ##  9  9/2002  1964
    ## 10 10/2002  3783
    ## # ... with 170 more rows
…
